(kicad_pcb (version 20221231) (generator pcbnew)

  (general
    (thickness 1.6)
  )

  (paper "A5")
  (layers
    (0 "F.Cu" signal)
    (31 "B.Cu" signal)
    (32 "B.Adhes" user "B.Adhesive")
    (33 "F.Adhes" user "F.Adhesive")
    (34 "B.Paste" user)
    (35 "F.Paste" user)
    (36 "B.SilkS" user "B.Silkscreen")
    (37 "F.SilkS" user "F.Silkscreen")
    (38 "B.Mask" user)
    (39 "F.Mask" user)
    (40 "Dwgs.User" user "User.Drawings")
    (41 "Cmts.User" user "User.Comments")
    (42 "Eco1.User" user "User.Eco1")
    (43 "Eco2.User" user "User.Eco2")
    (44 "Edge.Cuts" user)
    (45 "Margin" user)
    (46 "B.CrtYd" user "B.Courtyard")
    (47 "F.CrtYd" user "F.Courtyard")
    (48 "B.Fab" user)
    (49 "F.Fab" user)
    (50 "User.1" user)
    (51 "User.2" user)
    (52 "User.3" user)
    (53 "User.4" user)
    (54 "User.5" user)
    (55 "User.6" user)
    (56 "User.7" user)
    (57 "User.8" user)
    (58 "User.9" user)
  )

  (setup
    (stackup
      (layer "F.SilkS" (type "Top Silk Screen"))
      (layer "F.Paste" (type "Top Solder Paste"))
      (layer "F.Mask" (type "Top Solder Mask") (color "Green") (thickness 0.01))
      (layer "F.Cu" (type "copper") (thickness 0.035))
      (layer "dielectric 1" (type "core") (thickness 1.51) (material "FR4") (epsilon_r 4.5) (loss_tangent 0.02))
      (layer "B.Cu" (type "copper") (thickness 0.035))
      (layer "B.Mask" (type "Bottom Solder Mask") (color "Green") (thickness 0.01))
      (layer "B.Paste" (type "Bottom Solder Paste"))
      (layer "B.SilkS" (type "Bottom Silk Screen"))
      (copper_finish "None")
      (dielectric_constraints no)
    )
    (pad_to_mask_clearance 0)
    (pcbplotparams
      (layerselection 0x00010cc_ffffffff)
      (disableapertmacros false)
      (usegerberextensions true)
      (usegerberattributes false)
      (usegerberadvancedattributes true)
      (creategerberjobfile true)
      (dashed_line_dash_ratio 12.000000)
      (dashed_line_gap_ratio 3.000000)
      (svguseinch false)
      (svgprecision 6)
      (excludeedgelayer true)
      (plotframeref false)
      (viasonmask false)
      (mode 1)
      (useauxorigin false)
      (hpglpennumber 1)
      (hpglpenspeed 20)
      (hpglpendiameter 15.000000)
      (dxfpolygonmode true)
      (dxfimperialunits true)
      (dxfusepcbnewfont true)
      (psnegative false)
      (psa4output false)
      (plotreference true)
      (plotvalue true)
      (plotinvisibletext false)
      (sketchpadsonfab false)
      (subtractmaskfromsilk true)
      (outputformat 1)
      (mirror false)
      (drillshape 0)
      (scaleselection 1)
      (outputdirectory "./gerber")
    )
  )

  (net 0 "")

  (footprint "random keyboard parts:MX Cutout" locked (layer "F.Cu")
    (tedit 61B3904A) (tstamp 0fbec3a1-bef2-46aa-aaff-fff76fef9797)
    (at 152.107483 63.830017)
    (property "Sheetfile" "alt34_plate.kicad_sch")
    (property "Sheetname" "")
    (path "/8175599d-1908-446e-a7c7-ba4eb9a186d1")
    (fp_text reference "K10" (at 0 -0.5 unlocked) (layer "F.SilkS")
      (effects (font (size 1 1) (thickness 0.15)))
      (tstamp 20d0d4eb-266b-4783-b46a-aad26f3b6ae6)
    )
    (fp_text value "KEYSW" (at 0 1 unlocked) (layer "F.Fab")
      (effects (font (size 1 1) (thickness 0.15)))
      (tstamp e7c9a929-3015-488c-b0b8-44b287862299)
    )
    (fp_text user "${REFERENCE}" (at 0 2.5 unlocked) (layer "F.Fab")
      (effects (font (size 1 1) (thickness 0.15)))
      (tstamp 25bf5a37-eb32-4d5b-804f-3f01164ef62b)
    )
    (fp_rect (start -7 -7) (end 7 7)
      (stroke (width 0.12) (type solid)) (fill none) (layer "Edge.Cuts") (tstamp d2338f31-f844-4b3c-ade9-b0ccc2bb6a43))
  )

  (footprint "random keyboard parts:MX Cutout" locked (layer "F.Cu")
    (tedit 61B3904A) (tstamp 17c3a6aa-597f-4228-9e9f-47ad6baa3e00)
    (at 114.007483 64.880017)
    (property "Sheetfile" "alt34_plate.kicad_sch")
    (property "Sheetname" "")
    (path "/95343729-a28c-4839-a842-c10e4dca8c81")
    (fp_text reference "K13" (at 0 -0.5 unlocked) (layer "F.SilkS")
      (effects (font (size 1 1) (thickness 0.15)))
      (tstamp 285b1ff2-ddb6-47a1-9d6c-f80d3125caf9)
    )
    (fp_text value "KEYSW" (at 0 1 unlocked) (layer "F.Fab")
      (effects (font (size 1 1) (thickness 0.15)))
      (tstamp a84b7293-114a-4baf-a8c0-e5e6c80394cd)
    )
    (fp_text user "${REFERENCE}" (at 0 2.5 unlocked) (layer "F.Fab")
      (effects (font (size 1 1) (thickness 0.15)))
      (tstamp c49da009-f5a4-4b57-b1e1-d154dffbddd3)
    )
    (fp_rect (start -7 -7) (end 7 7)
      (stroke (width 0.12) (type solid)) (fill none) (layer "Edge.Cuts") (tstamp 4f2d73e8-b93e-47f1-9630-4c724d82be68))
  )

  (footprint "MountingHole:MountingHole_2.2mm_M2_DIN965_Pad" (layer "F.Cu")
    (tedit 56D1B4CB) (tstamp 18b45a78-2b55-4a3c-bdab-07d8ee7b025d)
    (at 114.007483 80.15)
    (descr "Mounting Hole 2.2mm, M2, DIN965")
    (tags "mounting hole 2.2mm m2 din965")
    (attr exclude_from_pos_files exclude_from_bom)
    (fp_text reference "HOLE_M2" (at 0 -2.9) (layer "F.SilkS") hide
      (effects (font (size 1 1) (thickness 0.15)))
      (tstamp cbc1b6c7-7feb-4634-a6c3-0a31cba4476e)
    )
    (fp_text value "" (at 0 2.9) (layer "F.Fab") hide
      (effects (font (size 1 1) (thickness 0.15)))
      (tstamp ff32f818-e0b0-4f0b-8828-fd9bd37f79b3)
    )
    (fp_text user "${REFERENCE}" (at 0.3 0) (layer "F.Fab") hide
      (effects (font (size 1 1) (thickness 0.15)))
      (tstamp 3955af19-74a1-431b-a354-69b0a6ea8ddf)
    )
    (fp_circle (center 0 0) (end 1.9 0)
      (stroke (width 0.15) (type solid)) (fill none) (layer "Cmts.User") (tstamp ab96bcbf-c755-42b1-81c6-383b88ea4105))
    (fp_circle (center 0 0) (end 2.15 0)
      (stroke (width 0.05) (type solid)) (fill none) (layer "F.CrtYd") (tstamp 3baf6be8-f9c9-4b7d-b55d-17503ca17ecc))
    (pad "1" thru_hole circle locked (at 0 0) (size 3.8 3.8) (drill 2.2) (layers *.Cu *.Mask) (tstamp 36639776-c9b1-462f-82df-bde8474ec7d6))
  )

  (footprint "random keyboard parts:MX Cutout" locked (layer "F.Cu")
    (tedit 61B3904A) (tstamp 254bac1c-e8cd-4749-9f09-fd42c6faa874)
    (at 152.107483 82.880017)
    (property "Sheetfile" "alt34_plate.kicad_sch")
    (property "Sheetname" "")
    (path "/4206f408-e29e-4b76-b563-a98a05f55a0b")
    (fp_text reference "K15" (at 0 -0.5 unlocked) (layer "F.SilkS")
      (effects (font (size 1 1) (thickness 0.15)))
      (tstamp a3854411-1205-4e96-b160-1502029355f3)
    )
    (fp_text value "KEYSW" (at 0 1 unlocked) (layer "F.Fab")
      (effects (font (size 1 1) (thickness 0.15)))
      (tstamp 97355d36-9b47-450d-910a-51deb77add02)
    )
    (fp_text user "${REFERENCE}" (at 0 2.5 unlocked) (layer "F.Fab")
      (effects (font (size 1 1) (thickness 0.15)))
      (tstamp 67aa40a9-ea72-4df7-9f13-f774ed1784d8)
    )
    (fp_rect (start -7 -7) (end 7 7)
      (stroke (width 0.12) (type solid)) (fill none) (layer "Edge.Cuts") (tstamp 7da45f21-b214-49fb-8a2c-a20cb33685a8))
  )

  (footprint "random keyboard parts:MX Cutout" locked (layer "F.Cu")
    (tedit 61B3904A) (tstamp 259a2b88-75fd-4450-a46c-433aa1bdcc1c)
    (at 94.957483 32.280017)
    (property "Sheetfile" "alt34_plate.kicad_sch")
    (property "Sheetname" "")
    (path "/c6a194f5-dd4d-41b9-bd84-f6caa8fdca48")
    (fp_text reference "K2" (at 0 -0.5 unlocked) (layer "F.SilkS")
      (effects (font (size 1 1) (thickness 0.15)))
      (tstamp 4b2d6f9a-668b-4408-9b5d-75f7186a5874)
    )
    (fp_text value "KEYSW" (at 0 1 unlocked) (layer "F.Fab")
      (effects (font (size 1 1) (thickness 0.15)))
      (tstamp 6a7e38a0-1cc5-49c8-a58f-2ed9bdfdb62f)
    )
    (fp_text user "${REFERENCE}" (at 0 2.5 unlocked) (layer "F.Fab")
      (effects (font (size 1 1) (thickness 0.15)))
      (tstamp c38c8b72-53b4-49dc-a878-acb92c64f93a)
    )
    (fp_rect (start -7 -7) (end 7 7)
      (stroke (width 0.12) (type solid)) (fill none) (layer "Edge.Cuts") (tstamp 210eb8e9-abd2-41b2-a59b-3a43b28cc782))
  )

  (footprint "random keyboard parts:Empty" (layer "F.Cu")
    (tedit 618848ED) (tstamp 30a1f474-8127-4642-a4c6-92b7e8f0df24)
    (at 56.132483 62.267517 -90)
    (property "Sheetfile" "alt34_plate.kicad_sch")
    (property "Sheetname" "")
    (path "/3c497d98-a75a-4ec9-97c0-8c92306ac50e")
    (fp_text reference "U1" (at 0 -0.5 -90 unlocked) (layer "F.SilkS") hide
      (effects (font (size 1 1) (thickness 0.15)))
      (tstamp 08e2c85f-05a6-4903-af01-738736c6829d)
    )
    (fp_text value "ELITE-C" (at 0 1 -90 unlocked) (layer "F.Fab") hide
      (effects (font (size 1 1) (thickness 0.15)))
      (tstamp ead4a9a5-76be-437c-be26-28dbb6e49868)
    )
  )

  (footprint "random keyboard parts:MX Cutout" locked (layer "F.Cu")
    (tedit 61B3904A) (tstamp 33623d4f-bee5-44aa-85b6-8d1adf39c9e6)
    (at 152.107483 44.780017)
    (property "Sheetfile" "alt34_plate.kicad_sch")
    (property "Sheetname" "")
    (path "/06243ab5-cbc9-4df9-8c0c-989c38eeb3b6")
    (fp_text reference "K5" (at 0 -0.5 unlocked) (layer "F.SilkS")
      (effects (font (size 1 1) (thickness 0.15)))
      (tstamp cfe387f1-68a4-4fd1-b664-723220177c1c)
    )
    (fp_text value "KEYSW" (at 0 1 unlocked) (layer "F.Fab")
      (effects (font (size 1 1) (thickness 0.15)))
      (tstamp fb4f9fce-4a17-4589-9c55-bdfb34d3e1dc)
    )
    (fp_text user "${REFERENCE}" (at 0 2.5 unlocked) (layer "F.Fab")
      (effects (font (size 1 1) (thickness 0.15)))
      (tstamp 5cc0eef8-c4e9-47a3-852a-58d860af673a)
    )
    (fp_rect (start -7 -7) (end 7 7)
      (stroke (width 0.12) (type solid)) (fill none) (layer "Edge.Cuts") (tstamp ff3338e2-7865-485c-8a64-a66e6172fe05))
  )

  (footprint "MountingHole:MountingHole_2.2mm_M2_DIN965_Pad" (layer "F.Cu")
    (tedit 56D1B4CB) (tstamp 353f38e5-d43b-477d-801c-d20b6a6a12bf)
    (at 143.582483 73.367517)
    (descr "Mounting Hole 2.2mm, M2, DIN965")
    (tags "mounting hole 2.2mm m2 din965")
    (attr exclude_from_pos_files exclude_from_bom)
    (fp_text reference "HOLE_M2" (at 0 -2.9) (layer "F.SilkS") hide
      (effects (font (size 1 1) (thickness 0.15)))
      (tstamp b04a9704-4765-4427-86f1-469168572521)
    )
    (fp_text value "" (at 0 2.9) (layer "F.Fab") hide
      (effects (font (size 1 1) (thickness 0.15)))
      (tstamp bc8681ba-b9ad-4ae0-adfc-df3ee29d674f)
    )
    (fp_text user "${REFERENCE}" (at 0.3 0) (layer "F.Fab") hide
      (effects (font (size 1 1) (thickness 0.15)))
      (tstamp 82018df9-2b90-41f6-9a21-a1536651b6cf)
    )
    (fp_circle (center 0 0) (end 1.9 0)
      (stroke (width 0.15) (type solid)) (fill none) (layer "Cmts.User") (tstamp 3a5548f2-b5c1-45dc-a0d7-7336d77166ff))
    (fp_circle (center 0 0) (end 2.15 0)
      (stroke (width 0.05) (type solid)) (fill none) (layer "F.CrtYd") (tstamp bbfaa55f-7033-4466-942b-aabe2b314b76))
    (pad "1" thru_hole circle locked (at 0 0) (size 3.8 3.8) (drill 2.2) (layers *.Cu *.Mask) (tstamp 4cd156d3-5b4b-44d8-8e69-ed87f780a4dc))
  )

  (footprint "random keyboard parts:MX Cutout" locked (layer "F.Cu")
    (tedit 61B3904A) (tstamp 3ff04797-74a2-4fc5-8365-ab3696c30d1d)
    (at 85.882483 92.367517 15)
    (property "Sheetfile" "alt34_plate.kicad_sch")
    (property "Sheetname" "")
    (path "/d2ce21e9-af6f-4b52-9089-cd715849d5e6")
    (fp_text reference "K17" (at 0 -0.5 15 unlocked) (layer "F.SilkS")
      (effects (font (size 1 1) (thickness 0.15)))
      (tstamp ff89c45c-c59c-47d2-9821-c6609b5c837d)
    )
    (fp_text value "KEYSW" (at 0 1 15 unlocked) (layer "F.Fab")
      (effects (font (size 1 1) (thickness 0.15)))
      (tstamp e77c0929-e464-4e83-9e98-aa5a4d6db850)
    )
    (fp_text user "${REFERENCE}" (at 0 2.5 15 unlocked) (layer "F.Fab")
      (effects (font (size 1 1) (thickness 0.15)))
      (tstamp 0837f58b-766b-43e8-993c-f23ad0737f7c)
    )
    (fp_rect (start -7 -7) (end 7 7)
      (stroke (width 0.12) (type solid)) (fill none) (layer "Edge.Cuts") (tstamp 0bac4fa6-6cae-4691-9123-408465b738a5))
  )

  (footprint "random keyboard parts:MX Cutout" locked (layer "F.Cu")
    (tedit 61B3904A) (tstamp 45b51638-7122-4bc2-9f96-c1f2da3f6e18)
    (at 133.057483 51.830017)
    (property "Sheetfile" "alt34_plate.kicad_sch")
    (property "Sheetname" "")
    (path "/550bcc51-c48e-4d05-836c-f420a7087468")
    (fp_text reference "K9" (at 0 -0.5 unlocked) (layer "F.SilkS")
      (effects (font (size 1 1) (thickness 0.15)))
      (tstamp 2652c7c3-becb-49a5-b0bb-7608d676e34f)
    )
    (fp_text value "KEYSW" (at 0 1 unlocked) (layer "F.Fab")
      (effects (font (size 1 1) (thickness 0.15)))
      (tstamp 0172430d-a40b-4f6a-a64b-cfac9fd23cc9)
    )
    (fp_text user "${REFERENCE}" (at 0 2.5 unlocked) (layer "F.Fab")
      (effects (font (size 1 1) (thickness 0.15)))
      (tstamp 1be30ca5-d843-4866-8939-fa3523193928)
    )
    (fp_rect (start -7 -7) (end 7 7)
      (stroke (width 0.12) (type solid)) (fill none) (layer "Edge.Cuts") (tstamp 6909932e-6f8b-47a5-84d5-f662b29f876d))
  )

  (footprint "random keyboard parts:MX Cutout" locked (layer "F.Cu")
    (tedit 61B3904A) (tstamp 4db113b1-511d-4f8e-bbc9-c6dce612c269)
    (at 75.907483 34.780017)
    (property "Sheetfile" "alt34_plate.kicad_sch")
    (property "Sheetname" "")
    (path "/9eb63512-05c8-429b-ab40-ef90044e8e31")
    (fp_text reference "K1" (at 0 -0.5 unlocked) (layer "F.SilkS")
      (effects (font (size 1 1) (thickness 0.15)))
      (tstamp 4d241a91-248e-46bb-95fc-ae9df75ddc6f)
    )
    (fp_text value "KEYSW" (at 0 1 unlocked) (layer "F.Fab")
      (effects (font (size 1 1) (thickness 0.15)))
      (tstamp 0aa9a232-5a1f-4c7f-8356-c63d153e3da6)
    )
    (fp_text user "${REFERENCE}" (at 0 2.5 unlocked) (layer "F.Fab")
      (effects (font (size 1 1) (thickness 0.15)))
      (tstamp da2cbd81-add1-4ed1-b063-a60f4cbe99ba)
    )
    (fp_rect (start -7 -7) (end 7 7)
      (stroke (width 0.12) (type solid)) (fill none) (layer "Edge.Cuts") (tstamp 08fdb666-b6b5-41fc-8249-d313e99feacb))
  )

  (footprint "random keyboard parts:MX Cutout" locked (layer "F.Cu")
    (tedit 61B3904A) (tstamp 4ecfa082-22fc-492f-ad3c-0e68ca808ba0)
    (at 94.957483 70.380017)
    (property "Sheetfile" "alt34_plate.kicad_sch")
    (property "Sheetname" "")
    (path "/e9f5dedb-d5d9-43ea-b1b2-09ddba19bc96")
    (fp_text reference "K12" (at 0 -0.5 unlocked) (layer "F.SilkS")
      (effects (font (size 1 1) (thickness 0.15)))
      (tstamp 9da953bb-6b5d-4788-866a-76ff01de41f8)
    )
    (fp_text value "KEYSW" (at 0 1 unlocked) (layer "F.Fab")
      (effects (font (size 1 1) (thickness 0.15)))
      (tstamp e301ec9e-899c-41e3-97af-d8d23278d29a)
    )
    (fp_text user "${REFERENCE}" (at 0 2.5 unlocked) (layer "F.Fab")
      (effects (font (size 1 1) (thickness 0.15)))
      (tstamp c88177cd-6f52-4a4e-a755-6da01ecd0f36)
    )
    (fp_rect (start -7 -7) (end 7 7)
      (stroke (width 0.12) (type solid)) (fill none) (layer "Edge.Cuts") (tstamp 90945423-c928-4cdd-995e-72fa1adeb658))
  )

  (footprint "MountingHole:MountingHole_2.2mm_M2_DIN965_Pad" (layer "F.Cu")
    (tedit 56D1B4CB) (tstamp 7401ca9d-4ee5-4059-991a-865760db8e71)
    (at 143.582483 54.292517)
    (descr "Mounting Hole 2.2mm, M2, DIN965")
    (tags "mounting hole 2.2mm m2 din965")
    (attr exclude_from_pos_files exclude_from_bom)
    (fp_text reference "HOLE_M2" (at 0 -2.9) (layer "F.SilkS") hide
      (effects (font (size 1 1) (thickness 0.15)))
      (tstamp ac7e6ac0-f35a-4058-8ec1-b9e4f551c4f8)
    )
    (fp_text value "" (at 0 2.9) (layer "F.Fab") hide
      (effects (font (size 1 1) (thickness 0.15)))
      (tstamp d2cfbc18-cea6-4a7a-a90d-b32a1533e4ed)
    )
    (fp_text user "${REFERENCE}" (at 0.3 0) (layer "F.Fab") hide
      (effects (font (size 1 1) (thickness 0.15)))
      (tstamp a2a9608b-aed9-48cc-89a7-4a250306dfd3)
    )
    (fp_circle (center 0 0) (end 1.9 0)
      (stroke (width 0.15) (type solid)) (fill none) (layer "Cmts.User") (tstamp bada5181-e1e2-4d47-b674-64f8226e5e92))
    (fp_circle (center 0 0) (end 2.15 0)
      (stroke (width 0.05) (type solid)) (fill none) (layer "F.CrtYd") (tstamp 0a96b14e-824d-4cf8-8ca0-a61f3aab2c3d))
    (pad "1" thru_hole circle locked (at 0 0) (size 3.8 3.8) (drill 2.2) (layers *.Cu *.Mask) (tstamp 291142d4-2294-498b-87ac-f6ccaca291f6))
  )

  (footprint "random keyboard parts:MX Cutout" locked (layer "F.Cu")
    (tedit 61B3904A) (tstamp 941407fb-1ad9-4a4a-8de4-9189b12402fb)
    (at 133.057483 70.880017)
    (property "Sheetfile" "alt34_plate.kicad_sch")
    (property "Sheetname" "")
    (path "/b9097ddb-0e93-4d57-bdc5-44b5a1de6c1b")
    (fp_text reference "K14" (at 0 -0.5 unlocked) (layer "F.SilkS")
      (effects (font (size 1 1) (thickness 0.15)))
      (tstamp 861157c9-c138-4d70-83be-4c28d8434844)
    )
    (fp_text value "KEYSW" (at 0 1 unlocked) (layer "F.Fab")
      (effects (font (size 1 1) (thickness 0.15)))
      (tstamp dbc8a734-1291-4511-88c3-7ffc01121cd5)
    )
    (fp_text user "${REFERENCE}" (at 0 2.5 unlocked) (layer "F.Fab")
      (effects (font (size 1 1) (thickness 0.15)))
      (tstamp bfcf7a4d-d01d-4f76-bc31-fb1a6cf83614)
    )
    (fp_rect (start -7 -7) (end 7 7)
      (stroke (width 0.12) (type solid)) (fill none) (layer "Edge.Cuts") (tstamp 0b40e34c-dd47-408c-9865-f068adb687df))
  )

  (footprint "MountingHole:MountingHole_2.2mm_M2_DIN965_Pad" (layer "F.Cu")
    (tedit 56D1B4CB) (tstamp a026d303-d7b4-4ceb-af67-f2b2754ec3a3)
    (at 72.632483 88.367517)
    (descr "Mounting Hole 2.2mm, M2, DIN965")
    (tags "mounting hole 2.2mm m2 din965")
    (attr exclude_from_pos_files exclude_from_bom)
    (fp_text reference "HOLE_M2" (at 0 -2.9) (layer "F.SilkS") hide
      (effects (font (size 1 1) (thickness 0.15)))
      (tstamp c4e1155b-e4da-4f44-a754-aab8c60bdbf4)
    )
    (fp_text value "" (at 0 2.9) (layer "F.Fab") hide
      (effects (font (size 1 1) (thickness 0.15)))
      (tstamp 944d7add-b2f4-4676-92da-a65c7fe35a78)
    )
    (fp_text user "${REFERENCE}" (at 0.3 0) (layer "F.Fab") hide
      (effects (font (size 1 1) (thickness 0.15)))
      (tstamp 745b6e11-0334-4099-9a35-114fdafe907c)
    )
    (fp_circle (center 0 0) (end 1.9 0)
      (stroke (width 0.15) (type solid)) (fill none) (layer "Cmts.User") (tstamp b2d22448-94d7-49fd-b465-b0877da139c2))
    (fp_circle (center 0 0) (end 2.15 0)
      (stroke (width 0.05) (type solid)) (fill none) (layer "F.CrtYd") (tstamp 380e2d67-b97d-4dd1-a788-4c7bc8a72dc5))
    (pad "1" thru_hole circle locked (at 0 0) (size 3.8 3.8) (drill 2.2) (layers *.Cu *.Mask) (tstamp 9c4487d4-550d-4475-bf5b-b17151541bca))
  )

  (footprint "random keyboard parts:Empty" (layer "F.Cu")
    (tedit 618848ED) (tstamp a1bb9995-760a-4448-b734-37c8fd4936f8)
    (at 47.225 81 90)
    (property "Sheetfile" "alt34_plate.kicad_sch")
    (property "Sheetname" "")
    (path "/304f43aa-7b7f-4962-8823-8b6534f0c02c")
    (fp_text reference "U2" (at 0 -0.5 90 unlocked) (layer "F.SilkS") hide
      (effects (font (size 1 1) (thickness 0.15)))
      (tstamp cf6dc212-db35-4799-b687-2180f6d78c54)
    )
    (fp_text value "TRRS" (at 0 1 90 unlocked) (layer "F.Fab") hide
      (effects (font (size 1 1) (thickness 0.15)))
      (tstamp 55cce8b1-5d65-4932-9aba-366ae2b68203)
    )
  )

  (footprint "random keyboard parts:MX Cutout" locked (layer "F.Cu")
    (tedit 61B3904A) (tstamp aa7f64df-e48b-4e1f-b838-c5e20a256784)
    (at 75.907483 72.880017)
    (property "Sheetfile" "alt34_plate.kicad_sch")
    (property "Sheetname" "")
    (path "/c0d7c9e1-d3b9-44db-9438-a6ea0168632b")
    (fp_text reference "K11" (at 0 -0.5 unlocked) (layer "F.SilkS")
      (effects (font (size 1 1) (thickness 0.15)))
      (tstamp 90828a07-a095-4ada-ab18-96946494ac7d)
    )
    (fp_text value "KEYSW" (at 0 1 unlocked) (layer "F.Fab")
      (effects (font (size 1 1) (thickness 0.15)))
      (tstamp 20afef49-823d-4a96-87e7-133b36857ee5)
    )
    (fp_text user "${REFERENCE}" (at 0 2.5 unlocked) (layer "F.Fab")
      (effects (font (size 1 1) (thickness 0.15)))
      (tstamp bc5a0e82-60b9-40cb-8744-82fe50d18a24)
    )
    (fp_rect (start -7 -7) (end 7 7)
      (stroke (width 0.12) (type solid)) (fill none) (layer "Edge.Cuts") (tstamp 9ce6123b-dabb-4605-b5d4-468b1666d3a6))
  )

  (footprint "random keyboard parts:MX Cutout" locked (layer "F.Cu")
    (tedit 61B3904A) (tstamp abcd8a91-08d2-4dba-aabc-3170de67d90a)
    (at 114.007483 45.830017)
    (property "Sheetfile" "alt34_plate.kicad_sch")
    (property "Sheetname" "")
    (path "/cd4e4ff0-7922-4c04-a38c-05c4a1a1fdad")
    (fp_text reference "K8" (at 0 -0.5 unlocked) (layer "F.SilkS")
      (effects (font (size 1 1) (thickness 0.15)))
      (tstamp 492ea401-6c2e-4284-87ab-c3543e5b2d71)
    )
    (fp_text value "KEYSW" (at 0 1 unlocked) (layer "F.Fab")
      (effects (font (size 1 1) (thickness 0.15)))
      (tstamp 0cd4f15e-f217-494a-b4ed-c875d9e91933)
    )
    (fp_text user "${REFERENCE}" (at 0 2.5 unlocked) (layer "F.Fab")
      (effects (font (size 1 1) (thickness 0.15)))
      (tstamp 9a97c0c7-f867-4449-ae3f-cdc11de1c549)
    )
    (fp_rect (start -7 -7) (end 7 7)
      (stroke (width 0.12) (type solid)) (fill none) (layer "Edge.Cuts") (tstamp 7d9e928e-6c4a-4888-8730-1e61a189233a))
  )

  (footprint "MountingHole:MountingHole_2.2mm_M2_DIN965_Pad" (layer "F.Cu")
    (tedit 56D1B4CB) (tstamp cf454b89-ae15-41aa-8c21-faf5a085bce2)
    (at 75.907483 44.305017)
    (descr "Mounting Hole 2.2mm, M2, DIN965")
    (tags "mounting hole 2.2mm m2 din965")
    (attr exclude_from_pos_files exclude_from_bom)
    (fp_text reference "HOLE_M2" (at 0 -2.9) (layer "F.SilkS") hide
      (effects (font (size 1 1) (thickness 0.15)))
      (tstamp 2671a292-71c8-42ae-ab33-2eb65440c252)
    )
    (fp_text value "" (at 0 2.9) (layer "F.Fab") hide
      (effects (font (size 1 1) (thickness 0.15)))
      (tstamp 3c1ff06b-3976-4d27-bbee-685772f5cac0)
    )
    (fp_text user "${REFERENCE}" (at 0.3 0) (layer "F.Fab") hide
      (effects (font (size 1 1) (thickness 0.15)))
      (tstamp 5a3917a2-7e2a-4845-ac38-71ed8d9225b4)
    )
    (fp_circle (center 0 0) (end 1.9 0)
      (stroke (width 0.15) (type solid)) (fill none) (layer "Cmts.User") (tstamp 17ae0117-6efa-4f76-a88e-a2f4ecafe65e))
    (fp_circle (center 0 0) (end 2.15 0)
      (stroke (width 0.05) (type solid)) (fill none) (layer "F.CrtYd") (tstamp b52f29e6-ed39-4c84-8589-e36a0ed33fd2))
    (pad "1" thru_hole circle locked (at 0 0) (size 3.8 3.8) (drill 2.2) (layers *.Cu *.Mask) (tstamp 05e32025-faee-471b-9d80-0727ee4c671a))
  )

  (footprint "random keyboard parts:MX Cutout" locked (layer "F.Cu")
    (tedit 61B3904A) (tstamp d0d8786b-e70f-4b4c-b30e-a2067cee682e)
    (at 114.007483 26.780017)
    (property "Sheetfile" "alt34_plate.kicad_sch")
    (property "Sheetname" "")
    (path "/f87cd20f-c8a7-46fb-98d7-d1e0d83f4365")
    (fp_text reference "K3" (at 0 -0.5 unlocked) (layer "F.SilkS")
      (effects (font (size 1 1) (thickness 0.15)))
      (tstamp 9f437b98-0368-4c59-969e-63f0678960ff)
    )
    (fp_text value "KEYSW" (at 0 1 unlocked) (layer "F.Fab")
      (effects (font (size 1 1) (thickness 0.15)))
      (tstamp 010125ea-6d85-48c7-a1d7-75726ea4bc22)
    )
    (fp_text user "${REFERENCE}" (at 0 2.5 unlocked) (layer "F.Fab")
      (effects (font (size 1 1) (thickness 0.15)))
      (tstamp 853d11d4-4521-446f-b335-d08d4de3a6a4)
    )
    (fp_rect (start -7 -7) (end 7 7)
      (stroke (width 0.12) (type solid)) (fill none) (layer "Edge.Cuts") (tstamp 18590dca-c05b-447f-89ad-39db3810a75a))
  )

  (footprint "random keyboard parts:MX Cutout" locked (layer "F.Cu")
    (tedit 61B3904A) (tstamp e56d8ffd-b53c-456a-bd55-4e060c718d47)
    (at 133.057483 32.780017)
    (property "Sheetfile" "alt34_plate.kicad_sch")
    (property "Sheetname" "")
    (path "/3aeb9419-c537-4e24-a83d-067dce29e7a9")
    (fp_text reference "K4" (at 0 -0.5 unlocked) (layer "F.SilkS")
      (effects (font (size 1 1) (thickness 0.15)))
      (tstamp 2be4cd81-6091-4bb2-92f5-21e638110852)
    )
    (fp_text value "KEYSW" (at 0 1 unlocked) (layer "F.Fab")
      (effects (font (size 1 1) (thickness 0.15)))
      (tstamp 717de0fe-2e91-4045-a495-df40f3d79936)
    )
    (fp_text user "${REFERENCE}" (at 0 2.5 unlocked) (layer "F.Fab")
      (effects (font (size 1 1) (thickness 0.15)))
      (tstamp 7d98ed4e-3a7e-4c7c-ba46-337c7944baae)
    )
    (fp_rect (start -7 -7) (end 7 7)
      (stroke (width 0.12) (type solid)) (fill none) (layer "Edge.Cuts") (tstamp d5da039e-8622-492d-ae2f-4efdbf2ac4f8))
  )

  (footprint "random keyboard parts:MX Cutout" locked (layer "F.Cu")
    (tedit 61B3904A) (tstamp ed9f6212-f780-4713-b825-de97860e2ff8)
    (at 66.082483 100.567517 30)
    (property "Sheetfile" "alt34_plate.kicad_sch")
    (property "Sheetname" "")
    (path "/e1476176-d274-4edf-9145-2f2e6d4364da")
    (fp_text reference "K16" (at 0 -0.5 30 unlocked) (layer "F.SilkS")
      (effects (font (size 1 1) (thickness 0.15)))
      (tstamp 17742dd6-29f6-470b-a0dc-216d715bb6d0)
    )
    (fp_text value "KEYSW" (at 0 1 30 unlocked) (layer "F.Fab")
      (effects (font (size 1 1) (thickness 0.15)))
      (tstamp e73ba256-b6b3-4d9b-a7ef-d588d871cbc3)
    )
    (fp_text user "${REFERENCE}" (at 0 2.5 30 unlocked) (layer "F.Fab")
      (effects (font (size 1 1) (thickness 0.15)))
      (tstamp 0e86355b-8a93-49b8-bc14-122f0afb4999)
    )
    (fp_rect (start -7 -7) (end 7 7)
      (stroke (width 0.12) (type solid)) (fill none) (layer "Edge.Cuts") (tstamp dc82ed34-3f7c-4af6-aaa8-6e92677d50d5))
  )

  (footprint "random keyboard parts:MX Cutout" locked (layer "F.Cu")
    (tedit 61B3904A) (tstamp f030a57a-43e8-4cfc-bb94-e35096f0d687)
    (at 94.957483 51.330017)
    (property "Sheetfile" "alt34_plate.kicad_sch")
    (property "Sheetname" "")
    (path "/93fefc6f-0fde-42e3-af0f-51b29c14784e")
    (fp_text reference "K7" (at 0 -0.5 unlocked) (layer "F.SilkS")
      (effects (font (size 1 1) (thickness 0.15)))
      (tstamp a47f5ca5-faa9-4985-a649-c77fa0e51444)
    )
    (fp_text value "KEYSW" (at 0 1 unlocked) (layer "F.Fab")
      (effects (font (size 1 1) (thickness 0.15)))
      (tstamp 07228ace-fb3d-4cd2-9b2c-3b89b8b37aa7)
    )
    (fp_text user "${REFERENCE}" (at 0 2.5 unlocked) (layer "F.Fab")
      (effects (font (size 1 1) (thickness 0.15)))
      (tstamp 5d2e83cc-4b02-496a-aa5e-ff0971d6d2a1)
    )
    (fp_rect (start -7 -7) (end 7 7)
      (stroke (width 0.12) (type solid)) (fill none) (layer "Edge.Cuts") (tstamp 1bf622e1-8baf-42db-bbe4-f9afa3f56d8e))
  )

  (footprint "random keyboard parts:Empty" (layer "F.Cu")
    (tedit 618848ED) (tstamp fd72cc36-aa10-4c35-bba6-d5dc579bd919)
    (at 59.436666 86.506627 -150)
    (property "Sheetfile" "alt34_plate.kicad_sch")
    (property "Sheetname" "")
    (path "/dbfd6c33-d601-4af4-9326-2f2b4fe3615f")
    (fp_text reference "SW1" (at 0 -0.5 -150 unlocked) (layer "F.SilkS") hide
      (effects (font (size 1 1) (thickness 0.15)))
      (tstamp f2b98c27-afae-4ceb-b345-83a6029643e5)
    )
    (fp_text value "SW_PUSH" (at 0 1 -150 unlocked) (layer "F.Fab") hide
      (effects (font (size 1 1) (thickness 0.15)))
      (tstamp 3fe17948-2699-4b73-813d-32a8df522e0a)
    )
  )

  (footprint "random keyboard parts:MX Cutout" (layer "F.Cu")
    (tedit 61B3904A) (tstamp ff78ee4b-e61c-4a65-99fe-0b7c3c052a16)
    (at 75.907483 53.830017)
    (property "Sheetfile" "alt34_plate.kicad_sch")
    (property "Sheetname" "")
    (path "/d6f0480d-3f7e-44ba-83a1-ad90e747ba87")
    (fp_text reference "K6" (at 0 -0.5 unlocked) (layer "F.SilkS")
      (effects (font (size 1 1) (thickness 0.15)))
      (tstamp 2ac6e624-052f-47f0-8956-9c650b75e25a)
    )
    (fp_text value "KEYSW" (at 0 1 unlocked) (layer "F.Fab")
      (effects (font (size 1 1) (thickness 0.15)))
      (tstamp 302b3ed1-dd2d-4c2f-8e85-465d728622bb)
    )
    (fp_text user "${REFERENCE}" (at 0 2.5 unlocked) (layer "F.Fab")
      (effects (font (size 1 1) (thickness 0.15)))
      (tstamp e9424699-560e-4bd7-b95a-3346b3cf130a)
    )
    (fp_rect (start -7 -7) (end 7 7)
      (stroke (width 0.12) (type solid)) (fill none) (layer "Edge.Cuts") (tstamp 55b3ba36-7c7e-4c08-93f0-0ef3be93d315))
  )

  (footprint "random keyboard parts:Empty" (layer "B.Cu")
    (tedit 618848ED) (tstamp 148b5fa4-53b9-4fa5-a8a7-b0e22f1fbf75)
    (at 76.107483 78.380017)
    (property "Sheetfile" "alt34_plate.kicad_sch")
    (property "Sheetname" "")
    (path "/7d363c93-09f3-4970-984e-f219295c0651")
    (fp_text reference "D11" (at 0 0.5 180 unlocked) (layer "B.SilkS") hide
      (effects (font (size 1 1) (thickness 0.15)) (justify mirror))
      (tstamp df21ea55-2359-4de1-a505-5888a4bd9828)
    )
    (fp_text value "D" (at 0 -1 180 unlocked) (layer "B.Fab") hide
      (effects (font (size 1 1) (thickness 0.15)) (justify mirror))
      (tstamp c6597b35-4ac7-4b0a-9aa9-fb60695b4457)
    )
  )

  (footprint "random keyboard parts:Empty" (layer "B.Cu")
    (tedit 618848ED) (tstamp 30f7a720-0b6d-46bd-93ed-e9918b4a248a)
    (at 95.157483 37.780017)
    (property "Sheetfile" "alt34_plate.kicad_sch")
    (property "Sheetname" "")
    (path "/9ca66732-1f4e-46ae-af17-b606358de06a")
    (fp_text reference "D2" (at 0 0.5 180 unlocked) (layer "B.SilkS") hide
      (effects (font (size 1 1) (thickness 0.15)) (justify mirror))
      (tstamp e35d72fa-5da9-4e70-a0c1-e4f1f917c97c)
    )
    (fp_text value "D" (at 0 -1 180 unlocked) (layer "B.Fab") hide
      (effects (font (size 1 1) (thickness 0.15)) (justify mirror))
      (tstamp c4886e32-ad91-4fd9-8ea8-a8f663f0b0d3)
    )
  )

  (footprint "random keyboard parts:Empty" (layer "B.Cu")
    (tedit 618848ED) (tstamp 3366d958-9cdb-4539-9689-b19174638295)
    (at 95.157483 56.830017)
    (property "Sheetfile" "alt34_plate.kicad_sch")
    (property "Sheetname" "")
    (path "/9568fe1e-4884-4d3f-8141-2e4a907e0714")
    (fp_text reference "D7" (at 0 0.5 180 unlocked) (layer "B.SilkS") hide
      (effects (font (size 1 1) (thickness 0.15)) (justify mirror))
      (tstamp 5ddba885-d084-497e-ba27-e50779af9927)
    )
    (fp_text value "D" (at 0 -1 180 unlocked) (layer "B.Fab") hide
      (effects (font (size 1 1) (thickness 0.15)) (justify mirror))
      (tstamp 7498e990-01fe-4437-9339-56552a8a1150)
    )
  )

  (footprint "random keyboard parts:Empty" (layer "B.Cu")
    (tedit 618848ED) (tstamp 41e02e19-0514-458d-90e8-5bbe8315a36a)
    (at 95.157483 75.880017)
    (property "Sheetfile" "alt34_plate.kicad_sch")
    (property "Sheetname" "")
    (path "/0771ad4a-7202-442f-a5a2-2e30540f4099")
    (fp_text reference "D12" (at 0 0.5 180 unlocked) (layer "B.SilkS") hide
      (effects (font (size 1 1) (thickness 0.15)) (justify mirror))
      (tstamp 33c87638-4705-4b70-927c-a3626ba7d01b)
    )
    (fp_text value "D" (at 0 -1 180 unlocked) (layer "B.Fab") hide
      (effects (font (size 1 1) (thickness 0.15)) (justify mirror))
      (tstamp 51cf3070-eb02-4457-b7db-8756254ddbe5)
    )
  )

  (footprint "random keyboard parts:Empty" (layer "B.Cu")
    (tedit 618848ED) (tstamp 4e86dcc0-2e17-4a16-880d-651cb6358504)
    (at 56.132483 73.175)
    (property "Sheetfile" "alt34_plate.kicad_sch")
    (property "Sheetname" "")
    (path "/94bfad75-7759-47b1-8f73-6c51d6f2c508")
    (fp_text reference "R1" (at 0 0.5 180 unlocked) (layer "B.SilkS") hide
      (effects (font (size 1 1) (thickness 0.15)) (justify mirror))
      (tstamp 56b5ef49-682f-4039-bfa4-4d5dd334c955)
    )
    (fp_text value "4.7k" (at 0 -1 180 unlocked) (layer "B.Fab") hide
      (effects (font (size 1 1) (thickness 0.15)) (justify mirror))
      (tstamp 22f74894-5099-4ad4-b9cd-e8c440191ce9)
    )
  )

  (footprint "random keyboard parts:Empty" (layer "B.Cu")
    (tedit 618848ED) (tstamp 561616ad-6013-48e7-aab5-016c94c8e20a)
    (at 114.207483 70.380017)
    (property "Sheetfile" "alt34_plate.kicad_sch")
    (property "Sheetname" "")
    (path "/1d9c36de-0290-41f7-aba8-dc73a87691be")
    (fp_text reference "D13" (at 0 0.5 180 unlocked) (layer "B.SilkS") hide
      (effects (font (size 1 1) (thickness 0.15)) (justify mirror))
      (tstamp bae0cbc3-f8d7-41b8-a030-d19e85591f77)
    )
    (fp_text value "D" (at 0 -1 180 unlocked) (layer "B.Fab") hide
      (effects (font (size 1 1) (thickness 0.15)) (justify mirror))
      (tstamp ce9573fb-d224-43be-bf87-4f15359c9593)
    )
  )

  (footprint "random keyboard parts:Empty" (layer "B.Cu")
    (tedit 618848ED) (tstamp 6056fae0-ad03-4293-bb2e-ac743840e88d)
    (at 69.005688 105.230657 30)
    (property "Sheetfile" "alt34_plate.kicad_sch")
    (property "Sheetname" "")
    (path "/eff90bac-aebc-4ce5-8103-c07ffccf89f5")
    (fp_text reference "D16" (at 0 0.5 210 unlocked) (layer "B.SilkS") hide
      (effects (font (size 1 1) (thickness 0.15)) (justify mirror))
      (tstamp 54975fe9-1d4d-479c-9c2d-7d844696d201)
    )
    (fp_text value "D" (at 0 -1 210 unlocked) (layer "B.Fab") hide
      (effects (font (size 1 1) (thickness 0.15)) (justify mirror))
      (tstamp f13ce608-29a2-4520-93af-0f57a69f179f)
    )
  )

  (footprint "random keyboard parts:Empty" (layer "B.Cu")
    (tedit 618848ED) (tstamp 6adf15de-5182-4dd9-beae-9615a4873848)
    (at 56.132483 70)
    (property "Sheetfile" "alt34_plate.kicad_sch")
    (property "Sheetname" "")
    (path "/d6844102-7c54-41e5-b644-18d9024833a1")
    (fp_text reference "R2" (at 0 0.5 180 unlocked) (layer "B.SilkS") hide
      (effects (font (size 1 1) (thickness 0.15)) (justify mirror))
      (tstamp 9585f9cd-a209-4b67-81b9-636cf73688b4)
    )
    (fp_text value "4.7k" (at 0 -1 180 unlocked) (layer "B.Fab") hide
      (effects (font (size 1 1) (thickness 0.15)) (justify mirror))
      (tstamp b1b88e5c-12ef-4e77-bd63-9d4e9cfbfc5f)
    )
  )

  (footprint "random keyboard parts:Empty" (layer "B.Cu")
    (tedit 618848ED) (tstamp 83c287f7-aa7b-48c0-9c7a-5a5bff8e09cb)
    (at 76.107483 40.280017)
    (property "Sheetfile" "alt34_plate.kicad_sch")
    (property "Sheetname" "")
    (path "/b3adb5bf-d879-45f4-a5ee-d136e833e17d")
    (fp_text reference "D1" (at 0 0.5 180 unlocked) (layer "B.SilkS") hide
      (effects (font (size 1 1) (thickness 0.15)) (justify mirror))
      (tstamp 0bc6e1de-3365-45b2-8cbe-c5f8500215b6)
    )
    (fp_text value "D" (at 0 -1 180 unlocked) (layer "B.Fab") hide
      (effects (font (size 1 1) (thickness 0.15)) (justify mirror))
      (tstamp 9d8577d3-16c5-44ba-a614-a9778b342cd7)
    )
  )

  (footprint "random keyboard parts:Empty" (layer "B.Cu")
    (tedit 618848ED) (tstamp 87f37d82-b4d9-41de-8e12-8dd0d68076cc)
    (at 152.307483 69.330017)
    (property "Sheetfile" "alt34_plate.kicad_sch")
    (property "Sheetname" "")
    (path "/07229c46-d4cd-40d9-a8ae-25f100ed821b")
    (fp_text reference "D10" (at 0 0.5 180 unlocked) (layer "B.SilkS") hide
      (effects (font (size 1 1) (thickness 0.15)) (justify mirror))
      (tstamp 82463602-bc94-4a83-8636-5d185b5b3929)
    )
    (fp_text value "D" (at 0 -1 180 unlocked) (layer "B.Fab") hide
      (effects (font (size 1 1) (thickness 0.15)) (justify mirror))
      (tstamp 9422072e-5041-4739-8fe5-fccab4670c54)
    )
  )

  (footprint "random keyboard parts:Empty" (layer "B.Cu")
    (tedit 618848ED) (tstamp 9de9738e-048f-4828-b2a3-26e1eb33ba8a)
    (at 152.307483 88.380017)
    (property "Sheetfile" "alt34_plate.kicad_sch")
    (property "Sheetname" "")
    (path "/06deea94-43d8-4ec9-887d-837dab19defc")
    (fp_text reference "D15" (at 0 0.5 180 unlocked) (layer "B.SilkS") hide
      (effects (font (size 1 1) (thickness 0.15)) (justify mirror))
      (tstamp 7155e207-69fd-4326-8a15-6c568169f2e2)
    )
    (fp_text value "D" (at 0 -1 180 unlocked) (layer "B.Fab") hide
      (effects (font (size 1 1) (thickness 0.15)) (justify mirror))
      (tstamp 7e1d6d3b-2662-4449-9bb1-7d38630a634c)
    )
  )

  (footprint "random keyboard parts:Empty" (layer "B.Cu")
    (tedit 618848ED) (tstamp a467bd7d-e555-4ccb-989d-42fa19b849e5)
    (at 114.207483 32.280017)
    (property "Sheetfile" "alt34_plate.kicad_sch")
    (property "Sheetname" "")
    (path "/b14763f6-e9d7-41ed-994f-89d8b4b34426")
    (fp_text reference "D3" (at 0 0.5 180 unlocked) (layer "B.SilkS") hide
      (effects (font (size 1 1) (thickness 0.15)) (justify mirror))
      (tstamp 468ac52a-441c-4cac-b61a-b4ccdacc849d)
    )
    (fp_text value "D" (at 0 -1 180 unlocked) (layer "B.Fab") hide
      (effects (font (size 1 1) (thickness 0.15)) (justify mirror))
      (tstamp ea31170b-76f2-4873-bae5-fa31feb832ce)
    )
  )

  (footprint "random keyboard parts:Empty" (layer "B.Cu")
    (tedit 618848ED) (tstamp af1e7722-ca66-4c8c-b0b5-e10e9f6f5c78)
    (at 114.207483 51.330017)
    (property "Sheetfile" "alt34_plate.kicad_sch")
    (property "Sheetname" "")
    (path "/44fbdde1-2ea3-4715-8206-058ea8500a54")
    (fp_text reference "D8" (at 0 0.5 180 unlocked) (layer "B.SilkS") hide
      (effects (font (size 1 1) (thickness 0.15)) (justify mirror))
      (tstamp 43f5043a-e863-4789-b260-5a7720b94209)
    )
    (fp_text value "D" (at 0 -1 180 unlocked) (layer "B.Fab") hide
      (effects (font (size 1 1) (thickness 0.15)) (justify mirror))
      (tstamp fd50391f-9897-49bd-8fac-f03b4ffbe16b)
    )
  )

  (footprint "random keyboard parts:Empty" (layer "B.Cu")
    (tedit 618848ED) (tstamp c62b9f4e-acd9-4ff8-9880-6c87605f30b6)
    (at 133.257483 76.380017)
    (property "Sheetfile" "alt34_plate.kicad_sch")
    (property "Sheetname" "")
    (path "/bc53b749-7fe0-43b3-91dd-998829e0ae61")
    (fp_text reference "D14" (at 0 0.5 180 unlocked) (layer "B.SilkS") hide
      (effects (font (size 1 1) (thickness 0.15)) (justify mirror))
      (tstamp c2dfa165-0b0a-488a-a1a9-903b9f89ef17)
    )
    (fp_text value "D" (at 0 -1 180 unlocked) (layer "B.Fab") hide
      (effects (font (size 1 1) (thickness 0.15)) (justify mirror))
      (tstamp 1465ecee-31fd-4c21-b70d-cfe4e2e812e4)
    )
  )

  (footprint "random keyboard parts:Empty" (layer "B.Cu")
    (tedit 618848ED) (tstamp c8f7a5d5-3e17-469d-9c63-ff6290091d65)
    (at 133.257483 38.280017)
    (property "Sheetfile" "alt34_plate.kicad_sch")
    (property "Sheetname" "")
    (path "/661e8db0-e34d-4630-83ce-1c8d36599812")
    (fp_text reference "D4" (at 0 0.5 180 unlocked) (layer "B.SilkS") hide
      (effects (font (size 1 1) (thickness 0.15)) (justify mirror))
      (tstamp f7fb1d91-8231-467f-b740-f7922431d247)
    )
    (fp_text value "D" (at 0 -1 180 unlocked) (layer "B.Fab") hide
      (effects (font (size 1 1) (thickness 0.15)) (justify mirror))
      (tstamp 5da22a74-7a60-492b-b1f3-a49a372ec51c)
    )
  )

  (footprint "random keyboard parts:Empty" (layer "B.Cu")
    (tedit 618848ED) (tstamp d5025d87-3ef1-403f-9334-b5b508e174d5)
    (at 152.307483 50.280017)
    (property "Sheetfile" "alt34_plate.kicad_sch")
    (property "Sheetname" "")
    (path "/d51bfa7c-c7b6-4e71-8671-d58fb125bc71")
    (fp_text reference "D5" (at 0 0.5 180 unlocked) (layer "B.SilkS") hide
      (effects (font (size 1 1) (thickness 0.15)) (justify mirror))
      (tstamp 8bc597d9-9fce-45a2-800e-36c0d0e78462)
    )
    (fp_text value "D" (at 0 -1 180 unlocked) (layer "B.Fab") hide
      (effects (font (size 1 1) (thickness 0.15)) (justify mirror))
      (tstamp 6794613e-cb48-44b2-b271-f156902bb805)
    )
  )

  (footprint "random keyboard parts:Empty" (layer "B.Cu")
    (tedit 618848ED) (tstamp db2821e1-5819-43bd-b2c4-4da82227bacd)
    (at 76.107483 59.330017)
    (property "Sheetfile" "alt34_plate.kicad_sch")
    (property "Sheetname" "")
    (path "/21aecf4d-236d-477a-9118-8f40ecd6d65c")
    (fp_text reference "D6" (at 0 0.5 180 unlocked) (layer "B.SilkS") hide
      (effects (font (size 1 1) (thickness 0.15)) (justify mirror))
      (tstamp 42688774-5c0e-42bb-8d00-5c09e3e12363)
    )
    (fp_text value "D" (at 0 -1 180 unlocked) (layer "B.Fab") hide
      (effects (font (size 1 1) (thickness 0.15)) (justify mirror))
      (tstamp 202f3bf6-d337-4a48-8ee2-85df5430d545)
    )
  )

  (footprint "random keyboard parts:Empty" (layer "B.Cu")
    (tedit 618848ED) (tstamp e0637780-20e9-4ed3-a347-3bf00d57e358)
    (at 87.499168 97.628343 15)
    (property "Sheetfile" "alt34_plate.kicad_sch")
    (property "Sheetname" "")
    (path "/2ffb07c5-2c80-4303-b36f-1b03e8fb7395")
    (fp_text reference "D17" (at 0 0.5 195 unlocked) (layer "B.SilkS") hide
      (effects (font (size 1 1) (thickness 0.15)) (justify mirror))
      (tstamp 5f0ef69a-ff8f-4146-bc32-ca70b32cb63c)
    )
    (fp_text value "D" (at 0 -1 195 unlocked) (layer "B.Fab") hide
      (effects (font (size 1 1) (thickness 0.15)) (justify mirror))
      (tstamp 437a03c5-f597-4423-ad38-feb247310f1e)
    )
  )

  (footprint "random keyboard parts:Empty" (layer "B.Cu")
    (tedit 618848ED) (tstamp f6bdf22c-d015-4c2a-8095-b43f63699a1a)
    (at 133.257483 57.330017)
    (property "Sheetfile" "alt34_plate.kicad_sch")
    (property "Sheetname" "")
    (path "/eee29088-e3e1-41a0-87fa-d2aef7159e81")
    (fp_text reference "D9" (at 0 0.5 180 unlocked) (layer "B.SilkS") hide
      (effects (font (size 1 1) (thickness 0.15)) (justify mirror))
      (tstamp 8744092c-48a2-42c0-9112-91649e6b910d)
    )
    (fp_text value "D" (at 0 -1 180 unlocked) (layer "B.Fab") hide
      (effects (font (size 1 1) (thickness 0.15)) (justify mirror))
      (tstamp 9261be93-0be6-4fef-904a-7de8fe2697ee)
    )
  )

  (gr_curve (pts (xy 105.209331 17.345128) (xy 104.998816 17.345128) (xy 104.796923 17.428755) (xy 104.648066 17.577612))
    (stroke (width 0.2) (type solid)) (layer "Edge.Cuts") (tstamp 09bf132b-11a1-4b74-856e-fbfef13172d2))
  (gr_curve (pts (xy 123.233073 17.577612) (xy 123.084216 17.428755) (xy 122.882323 17.345128) (xy 122.671808 17.345128))
    (stroke (width 0.2) (type solid)) (layer "Edge.Cuts") (tstamp 0f8a7def-6601-4dc8-be53-376a184b475a))
  (gr_line (start 84.571984 25.345146) (end 67.176169 25.345146)
    (stroke (width 0.2) (type solid)) (layer "Edge.Cuts") (tstamp 1933a0a6-fab2-414e-ab84-c53f1e31aa50))
  (gr_curve (pts (xy 62.573325 84.603434) (xy 62.147964 84.84904) (xy 61.885936 85.30291) (xy 61.885936 85.794086))
    (stroke (width 0.2) (type solid)) (layer "Edge.Cuts") (tstamp 1d0241ec-e8ce-4adc-adf1-4cd738ae4d1c))
  (gr_curve (pts (xy 124.259305 23.345271) (xy 124.04879 23.345271) (xy 123.846897 23.261644) (xy 123.69804 23.112787))
    (stroke (width 0.2) (type solid)) (layer "Edge.Cuts") (tstamp 2c256695-4461-499b-8b27-710c3dbe8cd5))
  (gr_line (start 50.390793 92.553692) (end 62.133718 112.981201)
    (stroke (width 0.2) (type solid)) (layer "Edge.Cuts") (tstamp 2dbd69ad-3359-4060-a12d-ffb020b3e29a))
  (gr_curve (pts (xy 62.133718 112.981201) (xy 62.238566 113.163591) (xy 62.411652 113.29679) (xy 62.614811 113.351429))
    (stroke (width 0.2) (type solid)) (layer "Edge.Cuts") (tstamp 3673ab12-65a9-4e36-9d9c-f8e055ee3481))
  (gr_line (start 143.309279 92.495478) (end 160.771756 92.495478)
    (stroke (width 0.2) (type solid)) (layer "Edge.Cuts") (tstamp 38195fce-01a4-428c-b1f3-d7fdb08a4ecf))
  (gr_curve (pts (xy 161.333021 35.57804) (xy 161.184164 35.429183) (xy 160.982271 35.345556) (xy 160.771756 35.345556))
    (stroke (width 0.2) (type solid)) (layer "Edge.Cuts") (tstamp 3a24bcca-8526-4967-b7d9-eb956e3f5db6))
  (gr_line (start 138.008024 87.991461) (end 141.954048 91.93443)
    (stroke (width 0.2) (type solid)) (layer "Edge.Cuts") (tstamp 3e361e10-4962-4ebb-803a-768982d9d695))
  (gr_curve (pts (xy 104.648066 17.577612) (xy 104.499209 17.726469) (xy 104.415583 17.928362) (xy 104.415583 18.138877))
    (stroke (width 0.2) (type solid)) (layer "Edge.Cuts") (tstamp 4b98c3e9-59e9-425e-9770-065051b9f2a0))
  (gr_curve (pts (xy 78.339581 104.54124) (xy 78.795888 104.277789) (xy 79.28472 104.075208) (xy 79.793618 103.93866))
    (stroke (width 0.2) (type solid)) (layer "Edge.Cuts") (tstamp 5653b832-838b-4b56-8118-36c4767ea14c))
  (gr_line (start 123.465557 22.551522) (end 123.465557 18.138877)
    (stroke (width 0.2) (type solid)) (layer "Edge.Cuts") (tstamp 5f265a9c-7406-4fe4-91bf-3901cb0674de))
  (gr_line (start 98.026298 98.615822) (end 106.754022 89.3799)
    (stroke (width 0.2) (type solid)) (layer "Edge.Cuts") (tstamp 6038bec5-2331-45e4-be1c-fc40cf5ef0a0))
  (gr_line (start 160.771756 35.345556) (end 143.309279 35.345556)
    (stroke (width 0.2) (type solid)) (layer "Edge.Cuts") (tstamp 612ae16f-8ff4-4384-8852-eb998a35a0b3))
  (gr_curve (pts (xy 141.954048 91.93443) (xy 142.313575 92.293678) (xy 142.80103 92.495478) (xy 143.309279 92.495478))
    (stroke (width 0.2) (type solid)) (layer "Edge.Cuts") (tstamp 638cdeb1-69e3-42cb-89fa-3744c964aac5))
  (gr_line (start 61.198526 87.594999) (end 57.24758 89.876012)
    (stroke (width 0.2) (type solid)) (layer "Edge.Cuts") (tstamp 6ac662e9-0040-4a64-a994-929156971f0e))
  (gr_line (start 63.216712 113.272473) (end 78.339581 104.54124)
    (stroke (width 0.2) (type solid)) (layer "Edge.Cuts") (tstamp 7244d609-1312-4809-84ec-35192ea6b174))
  (gr_curve (pts (xy 96.714498 99.398437) (xy 97.215744 99.263943) (xy 97.669851 98.993025) (xy 98.026298 98.615822))
    (stroke (width 0.2) (type solid)) (layer "Edge.Cuts") (tstamp 7271b5ad-2df4-41e7-8f34-15599bc3cd80))
  (gr_curve (pts (xy 61.885936 86.404384) (xy 61.885937 86.895556) (xy 61.623896 87.349418) (xy 61.198526 87.594999))
    (stroke (width 0.2) (type solid)) (layer "Edge.Cuts") (tstamp 77633dcc-d6f5-48fb-bc08-68c391e2b226))
  (gr_curve (pts (xy 123.465557 18.138877) (xy 123.465557 17.928362) (xy 123.38193 17.726469) (xy 123.233073 17.577612))
    (stroke (width 0.2) (type solid)) (layer "Edge.Cuts") (tstamp 79b83dd1-825b-4d30-a682-2d2aafa05d91))
  (gr_curve (pts (xy 55.344366 89.571058) (xy 54.918971 89.325501) (xy 54.394894 89.325515) (xy 53.969513 89.571096))
    (stroke (width 0.2) (type solid)) (layer "Edge.Cuts") (tstamp 8c74af57-9a84-42a3-b25f-aebb1650f08c))
  (gr_curve (pts (xy 106.754022 89.3799) (xy 108.49393 87.53868) (xy 110.915356 86.495335) (xy 113.448609 86.495334))
    (stroke (width 0.2) (type solid)) (layer "Edge.Cuts") (tstamp 8fb116c8-549d-4e34-8951-686ffd61ea41))
  (gr_curve (pts (xy 62.614811 113.351429) (xy 62.81797 113.406069) (xy 63.034519 113.377662) (xy 63.216712 113.272473))
    (stroke (width 0.2) (type solid)) (layer "Edge.Cuts") (tstamp 95bfbc80-b077-4112-bc4f-e39ed31cd252))
  (gr_line (start 53.969513 89.571096) (end 50.68262 91.468685)
    (stroke (width 0.2) (type solid)) (layer "Edge.Cuts") (tstamp 9846e366-d42c-4a30-8b1c-1a27eb124b03))
  (gr_curve (pts (xy 57.24758 89.876012) (xy 56.822202 90.121596) (xy 56.298126 90.121613) (xy 55.872732 89.876057))
    (stroke (width 0.2) (type solid)) (layer "Edge.Cuts") (tstamp 98f1d6b6-9aed-45eb-a573-b436de2f4744))
  (gr_curve (pts (xy 161.565505 36.139305) (xy 161.565505 35.92879) (xy 161.481878 35.726897) (xy 161.333021 35.57804))
    (stroke (width 0.2) (type solid)) (layer "Edge.Cuts") (tstamp 9ec7eb00-e763-4b3a-8906-305c9ff4b887))
  (gr_curve (pts (xy 142.283047 23.577754) (xy 142.13419 23.428897) (xy 141.932297 23.345271) (xy 141.721782 23.345271))
    (stroke (width 0.2) (type solid)) (layer "Edge.Cuts") (tstamp 9f24bf1c-ecf4-43df-89ba-646e7373435b))
  (gr_line (start 161.565505 91.701729) (end 161.565505 36.139305)
    (stroke (width 0.2) (type solid)) (layer "Edge.Cuts") (tstamp 9f2a67f8-131a-453c-9557-2e171a1b26b8))
  (gr_line (start 104.415583 18.138877) (end 104.415707 18.138877)
    (stroke (width 0.2) (type solid)) (layer "Edge.Cuts") (tstamp ac4d0dfe-f91a-4cf2-87e8-89eb99788441))
  (gr_curve (pts (xy 66.382637 26.138895) (xy 66.387479 44.612162) (xy 66.3779 62.421792) (xy 66.382108 81.610371))
    (stroke (width 0.2) (type solid)) (layer "Edge.Cuts") (tstamp ad20e907-5b39-41b5-9f65-53f6a6774447))
  (gr_curve (pts (xy 104.183223 22.613076) (xy 104.034366 22.761933) (xy 103.832473 22.84556) (xy 103.621958 22.84556))
    (stroke (width 0.2) (type solid)) (layer "Edge.Cuts") (tstamp ad67413e-447d-473d-b89e-1d11664432d5))
  (gr_line (start 55.872732 89.876057) (end 55.344366 89.571058)
    (stroke (width 0.2) (type solid)) (layer "Edge.Cuts") (tstamp adb442c5-d645-417a-bfc4-472035ae52fd))
  (gr_curve (pts (xy 86.159482 22.84556) (xy 85.948966 22.84556) (xy 85.747073 22.929187) (xy 85.598217 23.078044))
    (stroke (width 0.2) (type solid)) (layer "Edge.Cuts") (tstamp af89ca86-b7a5-4ff7-9765-59c338ae5232))
  (gr_curve (pts (xy 143.309279 35.345556) (xy 143.098764 35.345556) (xy 142.896871 35.261929) (xy 142.748014 35.113072))
    (stroke (width 0.2) (type solid)) (layer "Edge.Cuts") (tstamp b14dfd7b-e10d-40c1-aec2-546f46b5f0e8))
  (gr_curve (pts (xy 85.133249 25.112662) (xy 84.984392 25.261519) (xy 84.782499 25.345146) (xy 84.571984 25.345146))
    (stroke (width 0.2) (type solid)) (layer "Edge.Cuts") (tstamp b86391f6-c77a-45f9-8d71-f0c8e317f38b))
  (gr_line (start 113.448609 86.495334) (end 134.394074 86.495334)
    (stroke (width 0.2) (type solid)) (layer "Edge.Cuts") (tstamp c19ab21c-c7e4-47cb-9c5c-5732a9317544))
  (gr_curve (pts (xy 67.176169 25.345146) (xy 66.737795 25.345146) (xy 66.382521 25.700519) (xy 66.382637 26.138895))
    (stroke (width 0.2) (type solid)) (layer "Edge.Cuts") (tstamp c33bfe21-41fa-4ba4-b286-e6d0d140ac1a))
  (gr_line (start 61.885936 85.794086) (end 61.885936 86.404384)
    (stroke (width 0.2) (type solid)) (layer "Edge.Cuts") (tstamp cb2ca4e5-b2b0-4cd5-a58c-b70dca3ae7b6))
  (gr_curve (pts (xy 50.68262 91.468685) (xy 50.302766 91.687983) (xy 50.172197 92.173433) (xy 50.390793 92.553692))
    (stroke (width 0.2) (type solid)) (layer "Edge.Cuts") (tstamp cd59cf89-6d36-4ee5-841f-e6c67ffdbb11))
  (gr_curve (pts (xy 160.771756 92.495478) (xy 160.982271 92.495478) (xy 161.184164 92.411851) (xy 161.333021 92.262995))
    (stroke (width 0.2) (type solid)) (layer "Edge.Cuts") (tstamp cd973888-2fb3-4cfc-8730-8d205e9cc514))
  (gr_curve (pts (xy 104.415707 22.051811) (xy 104.415707 22.262326) (xy 104.33208 22.46422) (xy 104.183223 22.613076))
    (stroke (width 0.2) (type solid)) (layer "Edge.Cuts") (tstamp d039d2af-5603-412e-8eab-9f2f3859b564))
  (gr_line (start 142.515531 34.551807) (end 142.515531 24.139019)
    (stroke (width 0.2) (type solid)) (layer "Edge.Cuts") (tstamp d0cc818c-9a00-460a-a43c-1fd26507987c))
  (gr_line (start 79.793618 103.93866) (end 96.714498 99.398437)
    (stroke (width 0.2) (type solid)) (layer "Edge.Cuts") (tstamp d49e46c0-1a57-4c0f-8405-d4fb601cc0f2))
  (gr_line (start 103.621958 22.84556) (end 86.159482 22.84556)
    (stroke (width 0.2) (type solid)) (layer "Edge.Cuts") (tstamp d8de5d0a-c9d0-4109-912f-300207cea9d4))
  (gr_curve (pts (xy 66.382108 81.610371) (xy 66.382209 82.048745) (xy 66.074541 82.581816) (xy 65.694907 82.801021))
    (stroke (width 0.2) (type solid)) (layer "Edge.Cuts") (tstamp daa3b8d9-2ead-43a3-9f78-a415b607f38b))
  (gr_curve (pts (xy 123.69804 23.112787) (xy 123.549183 22.96393) (xy 123.465557 22.762037) (xy 123.465557 22.551522))
    (stroke (width 0.2) (type solid)) (layer "Edge.Cuts") (tstamp db5b716c-6ae7-4188-a990-e56cd438438a))
  (gr_line (start 85.365733 23.639309) (end 85.365733 24.551397)
    (stroke (width 0.2) (type solid)) (layer "Edge.Cuts") (tstamp de0a0682-07aa-4734-8913-6a9f561599c3))
  (gr_line (start 122.671808 17.345128) (end 105.209331 17.345128)
    (stroke (width 0.2) (type solid)) (layer "Edge.Cuts") (tstamp e089e366-bd4d-4a02-b101-57ae48be1338))
  (gr_curve (pts (xy 134.394074 86.495334) (xy 135.749407 86.495334) (xy 137.049287 87.033467) (xy 138.008024 87.991461))
    (stroke (width 0.2) (type solid)) (layer "Edge.Cuts") (tstamp e2f0ead8-2aad-4e1a-899f-c155115ffcc6))
  (gr_line (start 104.415707 18.138877) (end 104.415707 22.051811)
    (stroke (width 0.2) (type solid)) (layer "Edge.Cuts") (tstamp e8aaf774-ec1c-442c-8db3-f4395c0a5c42))
  (gr_curve (pts (xy 85.365733 24.551397) (xy 85.365733 24.761912) (xy 85.282106 24.963805) (xy 85.133249 25.112662))
    (stroke (width 0.2) (type solid)) (layer "Edge.Cuts") (tstamp ee4fc8fa-1509-4be3-a391-31cb328e6bfe))
  (gr_curve (pts (xy 85.598217 23.078044) (xy 85.44936 23.226901) (xy 85.365733 23.428794) (xy 85.365733 23.639309))
    (stroke (width 0.2) (type solid)) (layer "Edge.Cuts") (tstamp ef563a5b-61db-442f-948c-49dd2bfa70b5))
  (gr_curve (pts (xy 142.748014 35.113072) (xy 142.599157 34.964216) (xy 142.515531 34.762323) (xy 142.515531 34.551807))
    (stroke (width 0.2) (type solid)) (layer "Edge.Cuts") (tstamp f5e452ef-6910-424c-993d-855785c2284c))
  (gr_line (start 65.694907 82.801021) (end 62.573325 84.603434)
    (stroke (width 0.2) (type solid)) (layer "Edge.Cuts") (tstamp fc276cc9-9478-4634-8cbe-a04c84a25deb))
  (gr_line (start 141.721782 23.345271) (end 124.259305 23.345271)
    (stroke (width 0.2) (type solid)) (layer "Edge.Cuts") (tstamp fd31dff8-02c0-476f-a136-c9118b795278))
  (gr_curve (pts (xy 161.333021 92.262995) (xy 161.481878 92.114138) (xy 161.565505 91.912245) (xy 161.565505 91.701729))
    (stroke (width 0.2) (type solid)) (layer "Edge.Cuts") (tstamp fe339492-62fa-4e50-b04f-4f745edf2148))
  (gr_curve (pts (xy 142.515531 24.139019) (xy 142.515531 23.928504) (xy 142.431904 23.726611) (xy 142.283047 23.577754))
    (stroke (width 0.2) (type solid)) (layer "Edge.Cuts") (tstamp fedfb9e9-c0c7-4150-9ad1-276ebe79eb6c))

  (group "" (id 9ec511fd-b6ba-4be5-a4e3-1fcf0dff55cd)
    (members
      09bf132b-11a1-4b74-856e-fbfef13172d2
      0f8a7def-6601-4dc8-be53-376a184b475a
      1933a0a6-fab2-414e-ab84-c53f1e31aa50
      1d0241ec-e8ce-4adc-adf1-4cd738ae4d1c
      2c256695-4461-499b-8b27-710c3dbe8cd5
      2dbd69ad-3359-4060-a12d-ffb020b3e29a
      3673ab12-65a9-4e36-9d9c-f8e055ee3481
      38195fce-01a4-428c-b1f3-d7fdb08a4ecf
      3a24bcca-8526-4967-b7d9-eb956e3f5db6
      3e361e10-4962-4ebb-803a-768982d9d695
      4b98c3e9-59e9-425e-9770-065051b9f2a0
      5653b832-838b-4b56-8118-36c4767ea14c
      5f265a9c-7406-4fe4-91bf-3901cb0674de
      6038bec5-2331-45e4-be1c-fc40cf5ef0a0
      612ae16f-8ff4-4384-8852-eb998a35a0b3
      638cdeb1-69e3-42cb-89fa-3744c964aac5
      6ac662e9-0040-4a64-a994-929156971f0e
      7244d609-1312-4809-84ec-35192ea6b174
      7271b5ad-2df4-41e7-8f34-15599bc3cd80
      77633dcc-d6f5-48fb-bc08-68c391e2b226
      79b83dd1-825b-4d30-a682-2d2aafa05d91
      8c74af57-9a84-42a3-b25f-aebb1650f08c
      8fb116c8-549d-4e34-8951-686ffd61ea41
      95bfbc80-b077-4112-bc4f-e39ed31cd252
      9846e366-d42c-4a30-8b1c-1a27eb124b03
      98f1d6b6-9aed-45eb-a573-b436de2f4744
      9ec7eb00-e763-4b3a-8906-305c9ff4b887
      9f24bf1c-ecf4-43df-89ba-646e7373435b
      9f2a67f8-131a-453c-9557-2e171a1b26b8
      ac4d0dfe-f91a-4cf2-87e8-89eb99788441
      ad20e907-5b39-41b5-9f65-53f6a6774447
      ad67413e-447d-473d-b89e-1d11664432d5
      adb442c5-d645-417a-bfc4-472035ae52fd
      af89ca86-b7a5-4ff7-9765-59c338ae5232
      b14dfd7b-e10d-40c1-aec2-546f46b5f0e8
      b86391f6-c77a-45f9-8d71-f0c8e317f38b
      c19ab21c-c7e4-47cb-9c5c-5732a9317544
      c33bfe21-41fa-4ba4-b286-e6d0d140ac1a
      cb2ca4e5-b2b0-4cd5-a58c-b70dca3ae7b6
      cd59cf89-6d36-4ee5-841f-e6c67ffdbb11
      cd973888-2fb3-4cfc-8730-8d205e9cc514
      d039d2af-5603-412e-8eab-9f2f3859b564
      d0cc818c-9a00-460a-a43c-1fd26507987c
      d49e46c0-1a57-4c0f-8405-d4fb601cc0f2
      d8de5d0a-c9d0-4109-912f-300207cea9d4
      daa3b8d9-2ead-43a3-9f78-a415b607f38b
      db5b716c-6ae7-4188-a990-e56cd438438a
      de0a0682-07aa-4734-8913-6a9f561599c3
      e089e366-bd4d-4a02-b101-57ae48be1338
      e2f0ead8-2aad-4e1a-899f-c155115ffcc6
      e8aaf774-ec1c-442c-8db3-f4395c0a5c42
      ee4fc8fa-1509-4be3-a391-31cb328e6bfe
      ef563a5b-61db-442f-948c-49dd2bfa70b5
      f5e452ef-6910-424c-993d-855785c2284c
      fc276cc9-9478-4634-8cbe-a04c84a25deb
      fd31dff8-02c0-476f-a136-c9118b795278
      fe339492-62fa-4e50-b04f-4f745edf2148
      fedfb9e9-c0c7-4150-9ad1-276ebe79eb6c
    )
  )
)
